<?xml version="1.0" encoding="UTF-8"?>
<svg width="57px" height="52px" viewBox="0 0 57 52" version="1.1" xmlns="http://www.w3.org/2000/svg" xmlns:xlink="http://www.w3.org/1999/xlink">
    <!-- Generator: Sketch 46.2 (44496) - http://www.bohemiancoding.com/sketch -->
    <title>medical-svg</title>
    <desc>Created with Sketch.</desc>
    <defs>
        <rect id="path-1" x="0" y="0" width="280" height="400" rx="5"></rect>
        <filter x="-9.6%" y="-5.0%" width="119.3%" height="113.5%" filterUnits="objectBoundingBox" id="filter-2">
            <feOffset dx="0" dy="1" in="SourceAlpha" result="shadowOffsetOuter1"></feOffset>
            <feGaussianBlur stdDeviation="1.5" in="shadowOffsetOuter1" result="shadowBlurOuter1"></feGaussianBlur>
            <feColorMatrix values="0 0 0 0 0   0 0 0 0 0   0 0 0 0 0  0 0 0 0.0562443388 0" type="matrix" in="shadowBlurOuter1" result="shadowMatrixOuter1"></feColorMatrix>
            <feOffset dx="0" dy="6" in="SourceAlpha" result="shadowOffsetOuter2"></feOffset>
            <feGaussianBlur stdDeviation="7" in="shadowOffsetOuter2" result="shadowBlurOuter2"></feGaussianBlur>
            <feColorMatrix values="0 0 0 0 0   0 0 0 0 0   0 0 0 0 0  0 0 0 0.0645097373 0" type="matrix" in="shadowBlurOuter2" result="shadowMatrixOuter2"></feColorMatrix>
            <feMerge>
                <feMergeNode in="shadowMatrixOuter1"></feMergeNode>
                <feMergeNode in="shadowMatrixOuter2"></feMergeNode>
            </feMerge>
        </filter>
    </defs>
    <g id="Designs---Iteration-1" stroke="none" stroke-width="1" fill="none" fill-rule="evenodd">
        <g id="Upcoming-Course-Page---Design" transform="translate(-542.000000, -1350.000000)">
            <g id="Additional-information" transform="translate(130.000000, 1177.000000)">
                <g id="row" transform="translate(0.000000, 108.000000)">
                    <g id="item" transform="translate(300.000000, 0.000000)">
                        <g id="Rectangle-5">
                            <use fill="black" fill-opacity="1" filter="url(#filter-2)" xlink:href="#path-1"></use>
                            <use fill="#FFFFFF" fill-rule="evenodd" xlink:href="#path-1"></use>
                        </g>
                        <path d="M127.545455,75.4 L127.545455,72.8 C127.545455,68.4926161 131.022356,65 135.313263,65 L145.686737,65 C149.975773,65 153.454545,68.4970079 153.454545,72.8 L153.454545,75.4 L158.637373,75.4 C164.362942,75.4 169,80.0567023 169,85.8087132 L169,111.811382 C169,114.679404 166.682643,117 163.82169,117 L117.2,117 C114.328119,117 112,114.671881 112,111.8 L112,111.8 L112,85.8087132 C112,80.0611253 116.639406,75.4 122.362627,75.4 L127.545455,75.4 Z M132.727273,75.4 L148.272727,75.4 L148.272727,72.8 C148.272727,71.3668816 147.111931,70.2 145.686737,70.2 L135.313263,70.2 C133.885364,70.2 132.727273,71.3633254 132.727273,72.8 L132.727273,75.4 Z M143.090909,93.6 L146.968182,93.6 C148.404122,93.6 149.568182,94.7640597 149.568182,96.2 C149.568182,97.6359403 148.404122,98.8 146.968182,98.8 L143.090909,98.8 L143.090909,102.709091 L143.090909,102.709091 C143.090909,104.14001 141.93092,105.3 140.5,105.3 C139.06908,105.3 137.909091,104.14001 137.909091,102.709091 L137.909091,98.8 L134.031818,98.8 C132.595878,98.8 131.431818,97.6359403 131.431818,96.2 C131.431818,94.7640597 132.595878,93.6 134.031818,93.6 L137.909091,93.6 L137.909091,89.6909091 C137.909091,88.2599895 139.06908,87.1 140.5,87.1 C141.93092,87.1 143.090909,88.2599895 143.090909,89.6909091 L143.090909,93.6 Z M153.454545,80.6 L127.545455,80.6 L127.545455,111.801306 C135.259061,111.802373 145.741779,111.804035 153.454545,111.806063 L153.454545,80.6 Z M158.636364,80.6 L158.636364,111.807651 C161.813921,111.808818 163.818182,111.810074 163.818182,111.811382 L163.818182,85.8087132 C163.818182,82.9277396 161.500262,80.6 158.637373,80.6 Z M122.362627,80.6 C119.502601,80.6 117.181818,82.9316473 117.181818,85.8087132 C117.181818,85.8087132 117.183927,111.8 117.17831,111.8 C117.17831,111.8 119.184046,111.800218 122.363636,111.80062 L122.363636,80.6 Z" id="Combined-Shape" fill="#2CC09C"></path>
                    </g>
                </g>
            </g>
        </g>
    </g>
</svg>