<?xml version="1.0" encoding="UTF-8"?>
<svg width="72px" height="54px" viewBox="0 0 72 54" version="1.1" xmlns="http://www.w3.org/2000/svg" xmlns:xlink="http://www.w3.org/1999/xlink">
    <!-- Generator: Sketch 44.1 (41455) - http://www.bohemiancoding.com/sketch -->
    <title>Combined Shape</title>
    <desc>Created with Sketch.</desc>
    <defs></defs>
    <g id="Designs---Iteration-1" stroke="none" stroke-width="1" fill="none" fill-rule="evenodd">
        <g id="MProve-Homepage---Design" transform="translate(-232.000000, -812.000000)" fill="#2BC09C">
            <g id="4-col---Image-+-Title-+-Text-+-Sub-title-+-button" transform="translate(130.000000, 674.000000)">
                <g id="block" transform="translate(0.000000, 75.000000)">
                    <path d="M122.932502,105.479185 C122.977217,105.530377 123.025361,105.584506 123.076978,105.641386 C123.713304,106.342594 124.534881,107.059356 125.557522,107.739136 C128.595681,109.758687 132.656376,110.99104 137.94552,110.99104 C143.233941,110.99104 147.289497,109.759125 150.319955,107.740666 C151.339642,107.061496 152.158234,106.345462 152.791734,105.645054 C152.843303,105.588039 152.89138,105.533796 152.936012,105.482516 L152.936012,92.8857686 L141.929343,98.130532 C139.619875,99.2310116 136.248248,99.2300741 133.945739,98.1285304 L122.932502,92.8596857 L122.932502,105.479185 Z M116.931801,106.440903 L116.931801,89.9888888 L103.706953,83.661987 C101.429336,82.5723518 101.431495,79.3249006 103.71056,78.2383039 L133.935352,63.8279342 C136.244309,62.7270854 139.619025,62.7238624 141.925743,63.8192704 L172.285255,78.2363123 C174.569901,79.321239 174.57206,82.5760236 172.288855,83.6639886 L170.938118,84.3076251 L170.938118,98.6231987 C171.85885,99.44841 172.438294,100.647627 172.438294,101.982367 C172.438294,104.47136 170.42334,106.489088 167.937767,106.489088 C165.452195,106.489088 163.437241,104.47136 163.437241,101.982367 C163.437241,100.647627 164.016685,99.44841 164.937416,98.6231987 L164.937416,87.1670063 L158.936714,90.0263874 L158.936714,106.440537 C158.94607,106.988179 158.806088,107.544963 158.501354,108.047807 C158.26359,108.440142 157.849718,109.004055 157.239357,109.678881 C156.281602,110.737793 155.088884,111.781079 153.64327,112.743941 C149.630009,115.417003 144.418664,117 137.94552,117 C131.473099,117 126.258445,115.41744 122.238808,112.745472 C120.79122,111.783219 119.596208,110.740662 118.636,109.682549 C118.024201,109.00837 117.609123,108.445116 117.370581,108.053436 C117.063588,107.54936 116.922478,106.990571 116.931801,106.440903 Z M136.514935,69.2533399 L111.954822,80.9483414 L136.532536,92.7065698 C137.20102,93.0263796 138.674717,93.0267894 139.350931,92.7045683 L163.991414,80.9631868 L139.354531,69.2486594 C138.678395,68.9275775 137.195229,68.928994 136.514935,69.2533399 Z" id="Combined-Shape"></path>
                </g>
            </g>
        </g>
    </g>
</svg>