<?xml version="1.0" encoding="UTF-8"?>
<svg width="16px" height="23px" viewBox="0 0 16 23" version="1.1" xmlns="http://www.w3.org/2000/svg" xmlns:xlink="http://www.w3.org/1999/xlink">
    <!-- Generator: Sketch 44.1 (41455) - http://www.bohemiancoding.com/sketch -->
    <title>lock</title>
    <desc>Created with Sketch.</desc>
    <defs></defs>
    <g id="Designs---Iteration-1" stroke="none" stroke-width="1" fill="none" fill-rule="evenodd">
        <g id="MProve-Homepage---Design" transform="translate(-300.000000, -570.000000)" fill="#CCCCCC">
            <g id="Register-/--Login-modal">
                <g id="Content" transform="translate(230.000000, 144.000000)">
                    <g id="Create-account-form">
                        <g id="form" transform="translate(50.000000, 273.000000)">
                            <g id="Password" transform="translate(0.000000, 140.000000)">
                                <path d="M22.0645161,33.9555556 L33.9354839,33.9555556 L33.9354839,23.2222222 L22.0645161,23.2222222 L22.0645161,33.9555556 Z M23.8709677,19.4195556 C23.8709677,16.8026667 25.5765161,15.0444444 27.9997419,15.0444444 C30.4232258,15.0444444 32.1290323,16.8026667 32.1290323,19.4195556 L32.1290323,21.1777778 L23.8709677,21.1777778 L23.8709677,19.4195556 Z M34.9677419,21.1777778 L34.1935484,21.1777778 L34.1935484,19.4195556 C34.1935484,15.6398889 31.6010323,13 27.9997419,13 C24.3989677,13 21.8064516,15.6398889 21.8064516,19.4195556 L21.8064516,21.1777778 L21.0322581,21.1777778 C20.4621935,21.1777778 20,21.6393111 20,22.2038333 L20,34.9777778 C20,35.5423 20.4621935,36 21.0322581,36 L34.9677419,36 C35.5378065,36 36,35.5423 36,34.9777778 L36,22.2038333 C36,21.6393111 35.5378065,21.1777778 34.9677419,21.1777778 L34.9677419,21.1777778 Z" id="lock"></path>
                            </g>
                        </g>
                    </g>
                </g>
            </g>
        </g>
    </g>
</svg>