<svg width="62" height="62" viewBox="0 0 62 62" fill="none" xmlns="http://www.w3.org/2000/svg">
<path fill-rule="evenodd" clip-rule="evenodd" d="M30.77 39.525C36.4476 39.525 41.6895 42.1369 45.1229 46.5248C45.9142 47.5361 47.3754 47.7144 48.3867 46.9231C49.398 46.1318 49.5763 44.6706 48.785 43.6593C44.4795 38.1568 37.8932 34.875 30.77 34.875C24.2029 34.875 18.0793 37.6621 13.7719 42.4482C12.9129 43.4026 12.9902 44.8727 13.9447 45.7317C14.8991 46.5907 16.3692 46.5133 17.2282 45.5588C20.6628 41.7426 25.5351 39.525 30.77 39.525ZM31 62C48.1208 62 62 48.1208 62 31C62 13.8792 48.1208 0 31 0C13.8792 0 0 13.8792 0 31C0 48.1208 13.8792 62 31 62ZM41.85 27.9C43.9901 27.9 45.725 26.1651 45.725 24.025C45.725 21.8849 43.9901 20.15 41.85 20.15C39.7099 20.15 37.975 21.8849 37.975 24.025C37.975 26.1651 39.7099 27.9 41.85 27.9ZM20.15 27.9C22.2901 27.9 24.025 26.1651 24.025 24.025C24.025 21.8849 22.2901 20.15 20.15 20.15C18.0099 20.15 16.275 21.8849 16.275 24.025C16.275 26.1651 18.0099 27.9 20.15 27.9Z" fill="#1C487D"/>
</svg>
