<?xml version="1.0" encoding="UTF-8"?>
<svg width="64px" height="64px" viewBox="0 0 64 64" version="1.1" xmlns="http://www.w3.org/2000/svg" xmlns:xlink="http://www.w3.org/1999/xlink">
    <!-- Generator: Sketch 44.1 (41455) - http://www.bohemiancoding.com/sketch -->
    <title>Combined Shape</title>
    <desc>Created with Sketch.</desc>
    <defs></defs>
    <g id="Designs---Iteration-1" stroke="none" stroke-width="1" fill="none" fill-rule="evenodd">
        <g id="MProve-Homepage---Design" transform="translate(-536.000000, -807.000000)" fill="#2BC09C">
            <g id="4-col---Image-+-Title-+-Text-+-Sub-title-+-button" transform="translate(130.000000, 674.000000)">
                <g id="block" transform="translate(300.000000, 75.000000)">
                    <path d="M141.2,94.8 L144.4,94.8 C146.167311,94.8 147.6,96.2326888 147.6,98 C147.6,99.7673112 146.167311,101.2 144.4,101.2 L141.2,101.2 L141.2,104.4 L144.4,104.4 C146.167311,104.4 147.6,105.832689 147.6,107.6 L147.6,107.6 C147.6,109.367311 146.167311,110.8 144.4,110.8 L138,110.8 C136.232689,110.8 134.8,109.367311 134.8,107.6 L134.8,89.4537417 C131.071384,88.1358652 128.4,84.5799002 128.4,80.4 C128.4,75.0980664 132.698066,70.8 138,70.8 C143.301934,70.8 147.6,75.0980664 147.6,80.4 C147.6,84.5799002 144.928616,88.1358652 141.2,89.4537417 L141.2,94.8 Z M170,90 C170,107.673112 155.673112,122 138,122 C120.326888,122 106,107.673112 106,90 C106,72.326888 120.326888,58 138,58 C155.673112,58 170,72.326888 170,90 Z M112.4,90 C112.4,104.13849 123.86151,115.6 138,115.6 C152.13849,115.6 163.6,104.13849 163.6,90 C163.6,75.8615104 152.13849,64.4 138,64.4 C123.86151,64.4 112.4,75.8615104 112.4,90 Z M141.2,80.4 C141.2,78.6326888 139.767311,77.2 138,77.2 C136.232689,77.2 134.8,78.6326888 134.8,80.4 C134.8,82.1673112 136.232689,83.6 138,83.6 C139.767311,83.6 141.2,82.1673112 141.2,80.4 Z" id="Combined-Shape"></path>
                </g>
            </g>
        </g>
    </g>
</svg>