<?xml version="1.0" encoding="UTF-8"?>
<svg width="162px" height="315px" viewBox="0 0 162 315" version="1.1" xmlns="http://www.w3.org/2000/svg" xmlns:xlink="http://www.w3.org/1999/xlink">
    <!-- Generator: Sketch 44.1 (41455) - http://www.bohemiancoding.com/sketch -->
    <title>rings-svg</title>
    <desc>Created with Sketch.</desc>
    <defs></defs>
    <g id="Page-1" stroke="none" stroke-width="1" fill="none" fill-rule="evenodd">
        <g id="rings-svg">
            <circle id="Oval-4" fill="#2BC09C" cx="75.5" cy="75.5" r="75.5"></circle>
            <circle id="Oval-4" fill="#1C487D" cx="95" cy="248" r="67"></circle>
            <circle id="Oval-4" fill="#72D3CF" opacity="0.718983209" cx="91.5" cy="153.5" r="53.5"></circle>
        </g>
    </g>
</svg>